vcs_makefile/file/simv_simple_fsm.log
Command: ./simv_simple_fsm -cm line+cond+fsm+branch+tgl -cm_name simv_simple_fsm -cm_dir ./simv_simple_fsm.vdb +vpdfile+simv_simple_fsm.vpd -l simv_simple_fsm.log
Chronologic VCS simulator copyright 1991-2016
Contains Synopsys proprietary information.
Compiler version L-2016.06_Full64; Runtime version L-2016.06_Full64;  Jun  6 20:34 2021
*Verdi3* Loading libsscore_vcs201606.so
*Verdi3* : FSDB_GATE is set.
*Verdi3* : FSDB_RTL is set.
*Verdi3* : Enable Parallel Dumping.
FSDB Dumper for VCS, Release Verdi3_L-2016.06-1, Linux x86_64/64bit, 07/10/2016
(C) 1996 - 2016 by Synopsys, Inc.
*Verdi3* : Create FSDB file 'simple_fsm.fsdb'
*Verdi3* : Begin traversing the scope (tb_simple_fsm), layer (0).
*Verdi3* : End of traversing.
@time    0ns: pi_money=0 state=001 po_cola=0
@time   40ns: pi_money=1 state=001 po_cola=0
@time   60ns: pi_money=1 state=010 po_cola=0
@time   80ns: pi_money=1 state=100 po_cola=0
@time  100ns: pi_money=1 state=001 po_cola=1
@time  120ns: pi_money=1 state=010 po_cola=0
@time  140ns: pi_money=1 state=100 po_cola=0
@time  160ns: pi_money=0 state=001 po_cola=1
@time  180ns: pi_money=1 state=001 po_cola=0
@time  200ns: pi_money=1 state=010 po_cola=0
@time  220ns: pi_money=0 state=100 po_cola=0
@time  240ns: pi_money=1 state=100 po_cola=0
@time  260ns: pi_money=1 state=001 po_cola=1
@time  280ns: pi_money=0 state=010 po_cola=0
@time  300ns: pi_money=1 state=010 po_cola=0
@time  320ns: pi_money=0 state=100 po_cola=0
@time  340ns: pi_money=1 state=100 po_cola=0
@time  360ns: pi_money=0 state=001 po_cola=1
@time  380ns: pi_money=1 state=001 po_cola=0
@time  400ns: pi_money=1 state=010 po_cola=0
@time  420ns: pi_money=0 state=100 po_cola=0
@time  440ns: pi_money=1 state=100 po_cola=0
@time  460ns: pi_money=0 state=001 po_cola=1
@time  480ns: pi_money=0 state=001 po_cola=0
@time  520ns: pi_money=1 state=001 po_cola=0
@time  540ns: pi_money=0 state=010 po_cola=0
@time  560ns: pi_money=1 state=010 po_cola=0
@time  580ns: pi_money=1 state=100 po_cola=0
@time  600ns: pi_money=1 state=001 po_cola=1
@time  620ns: pi_money=1 state=010 po_cola=0
@time  640ns: pi_money=0 state=100 po_cola=0
@time  720ns: pi_money=1 state=100 po_cola=0
@time  740ns: pi_money=0 state=001 po_cola=1
@time  760ns: pi_money=1 state=001 po_cola=0
@time  780ns: pi_money=1 state=010 po_cola=0
@time  800ns: pi_money=1 state=100 po_cola=0
@time  820ns: pi_money=1 state=001 po_cola=1
@time  840ns: pi_money=1 state=010 po_cola=0
@time  860ns: pi_money=0 state=100 po_cola=0
@time  900ns: pi_money=1 state=100 po_cola=0
@time  920ns: pi_money=1 state=001 po_cola=1
@time  940ns: pi_money=1 state=010 po_cola=0
@time  960ns: pi_money=0 state=100 po_cola=0
@time 1060ns: pi_money=1 state=100 po_cola=0
@time 1080ns: pi_money=0 state=001 po_cola=1
@time 1100ns: pi_money=0 state=001 po_cola=0
@time 1120ns: pi_money=1 state=001 po_cola=0
@time 1140ns: pi_money=1 state=010 po_cola=0
@time 1160ns: pi_money=0 state=100 po_cola=0
@time 1260ns: pi_money=1 state=100 po_cola=0
@time 1280ns: pi_money=1 state=001 po_cola=1
@time 1300ns: pi_money=1 state=010 po_cola=0
@time 1320ns: pi_money=1 state=100 po_cola=0
@time 1340ns: pi_money=1 state=001 po_cola=1
@time 1360ns: pi_money=0 state=010 po_cola=0
@time 1400ns: pi_money=1 state=010 po_cola=0
@time 1420ns: pi_money=1 state=100 po_cola=0
@time 1440ns: pi_money=1 state=001 po_cola=1
@time 1460ns: pi_money=0 state=010 po_cola=0
@time 1500ns: pi_money=1 state=010 po_cola=0
@time 1520ns: pi_money=1 state=100 po_cola=0
@time 1540ns: pi_money=0 state=001 po_cola=1
@time 1560ns: pi_money=1 state=001 po_cola=0
@time 1580ns: pi_money=1 state=010 po_cola=0
@time 1600ns: pi_money=0 state=100 po_cola=0
@time 1620ns: pi_money=1 state=100 po_cola=0
@time 1640ns: pi_money=1 state=001 po_cola=1
@time 1660ns: pi_money=1 state=010 po_cola=0
@time 1680ns: pi_money=0 state=100 po_cola=0
@time 1700ns: pi_money=1 state=100 po_cola=0
@time 1720ns: pi_money=1 state=001 po_cola=1
@time 1740ns: pi_money=0 state=010 po_cola=0
@time 1820ns: pi_money=1 state=010 po_cola=0
@time 1840ns: pi_money=1 state=100 po_cola=0
@time 1860ns: pi_money=0 state=001 po_cola=1
@time 1880ns: pi_money=0 state=001 po_cola=0
@time 1900ns: pi_money=1 state=001 po_cola=0
@time 1920ns: pi_money=1 state=010 po_cola=0
@time 1940ns: pi_money=1 state=100 po_cola=0
@time 1960ns: pi_money=1 state=001 po_cola=1
@time 1980ns: pi_money=1 state=010 po_cola=0
@time 2000ns: pi_money=0 state=100 po_cola=0
@time 2020ns: pi_money=1 state=100 po_cola=0
@time 2040ns: pi_money=1 state=001 po_cola=1
@time 2060ns: pi_money=1 state=010 po_cola=0
@time 2080ns: pi_money=0 state=100 po_cola=0
@time 2220ns: pi_money=1 state=100 po_cola=0
@time 2240ns: pi_money=1 state=001 po_cola=1
@time 2260ns: pi_money=1 state=010 po_cola=0
@time 2280ns: pi_money=1 state=100 po_cola=0
@time 2300ns: pi_money=1 state=001 po_cola=1
@time 2320ns: pi_money=0 state=010 po_cola=0
@time 2340ns: pi_money=1 state=010 po_cola=0
@time 2360ns: pi_money=1 state=100 po_cola=0
@time 2380ns: pi_money=0 state=001 po_cola=1
@time 2400ns: pi_money=0 state=001 po_cola=0
@time 2420ns: pi_money=1 state=001 po_cola=0
@time 2440ns: pi_money=1 state=010 po_cola=0
@time 2460ns: pi_money=0 state=100 po_cola=0
@time 2480ns: pi_money=1 state=100 po_cola=0
@time 2500ns: pi_money=1 state=001 po_cola=1
@time 2520ns: pi_money=1 state=010 po_cola=0
@time 2540ns: pi_money=1 state=100 po_cola=0
@time 2560ns: pi_money=0 state=001 po_cola=1
@time 2580ns: pi_money=0 state=001 po_cola=0
@time 2620ns: pi_money=1 state=001 po_cola=0
@time 2640ns: pi_money=0 state=010 po_cola=0
@time 2700ns: pi_money=1 state=010 po_cola=0
@time 2720ns: pi_money=1 state=100 po_cola=0
@time 2740ns: pi_money=0 state=001 po_cola=1
@time 2760ns: pi_money=0 state=001 po_cola=0
@time 2780ns: pi_money=1 state=001 po_cola=0
@time 2800ns: pi_money=0 state=010 po_cola=0
@time 2860ns: pi_money=1 state=010 po_cola=0
@time 2880ns: pi_money=0 state=100 po_cola=0
@time 2920ns: pi_money=1 state=100 po_cola=0
@time 2940ns: pi_money=0 state=001 po_cola=1
@time 2960ns: pi_money=1 state=001 po_cola=0
@time 2980ns: pi_money=1 state=010 po_cola=0
@time 3000ns: pi_money=1 state=100 po_cola=0
@time 3020ns: pi_money=1 state=001 po_cola=1
@time 3040ns: pi_money=1 state=010 po_cola=0
@time 3060ns: pi_money=0 state=100 po_cola=0
@time 3120ns: pi_money=1 state=100 po_cola=0
@time 3140ns: pi_money=0 state=001 po_cola=1
@time 3160ns: pi_money=0 state=001 po_cola=0
@time 3180ns: pi_money=1 state=001 po_cola=0
@time 3200ns: pi_money=1 state=010 po_cola=0
@time 3220ns: pi_money=0 state=100 po_cola=0
@time 3280ns: pi_money=1 state=100 po_cola=0
@time 3300ns: pi_money=1 state=001 po_cola=1
@time 3320ns: pi_money=0 state=010 po_cola=0
@time 3380ns: pi_money=1 state=010 po_cola=0
@time 3400ns: pi_money=1 state=100 po_cola=0
@time 3420ns: pi_money=0 state=001 po_cola=1
@time 3440ns: pi_money=0 state=001 po_cola=0
@time 3480ns: pi_money=1 state=001 po_cola=0
@time 3500ns: pi_money=0 state=010 po_cola=0
@time 3540ns: pi_money=1 state=010 po_cola=0
@time 3560ns: pi_money=0 state=100 po_cola=0
@time 3620ns: pi_money=1 state=100 po_cola=0
@time 3640ns: pi_money=0 state=001 po_cola=1
@time 3660ns: pi_money=1 state=001 po_cola=0
@time 3680ns: pi_money=1 state=010 po_cola=0
@time 3700ns: pi_money=0 state=100 po_cola=0
@time 3780ns: pi_money=1 state=100 po_cola=0
@time 3800ns: pi_money=0 state=001 po_cola=1
@time 3820ns: pi_money=0 state=001 po_cola=0
@time 3880ns: pi_money=1 state=001 po_cola=0
@time 3900ns: pi_money=1 state=010 po_cola=0
@time 3920ns: pi_money=1 state=100 po_cola=0
@time 3940ns: pi_money=0 state=001 po_cola=1
@time 3960ns: pi_money=1 state=001 po_cola=0
@time 3980ns: pi_money=1 state=010 po_cola=0
@time 4000ns: pi_money=1 state=100 po_cola=0
@time 4020ns: pi_money=0 state=001 po_cola=1
@time 4040ns: pi_money=0 state=001 po_cola=0
@time 4060ns: pi_money=1 state=001 po_cola=0
@time 4080ns: pi_money=1 state=010 po_cola=0
@time 4100ns: pi_money=1 state=100 po_cola=0
@time 4120ns: pi_money=1 state=001 po_cola=1
@time 4140ns: pi_money=1 state=010 po_cola=0
@time 4160ns: pi_money=0 state=100 po_cola=0
@time 4180ns: pi_money=1 state=100 po_cola=0
@time 4200ns: pi_money=1 state=001 po_cola=1
@time 4220ns: pi_money=0 state=010 po_cola=0
@time 4300ns: pi_money=1 state=010 po_cola=0
@time 4320ns: pi_money=1 state=100 po_cola=0
@time 4340ns: pi_money=0 state=001 po_cola=1
@time 4360ns: pi_money=0 state=001 po_cola=0
@time 4380ns: pi_money=1 state=001 po_cola=0
@time 4400ns: pi_money=0 state=010 po_cola=0
@time 4440ns: pi_money=1 state=010 po_cola=0
@time 4460ns: pi_money=0 state=100 po_cola=0
@time 4500ns: pi_money=1 state=100 po_cola=0
@time 4520ns: pi_money=0 state=001 po_cola=1
@time 4540ns: pi_money=0 state=001 po_cola=0
@time 4560ns: pi_money=1 state=001 po_cola=0
@time 4580ns: pi_money=1 state=010 po_cola=0
@time 4600ns: pi_money=1 state=100 po_cola=0
@time 4620ns: pi_money=0 state=001 po_cola=1
@time 4640ns: pi_money=0 state=001 po_cola=0
@time 4680ns: pi_money=1 state=001 po_cola=0
@time 4700ns: pi_money=0 state=010 po_cola=0
@time 4740ns: pi_money=1 state=010 po_cola=0
@time 4760ns: pi_money=0 state=100 po_cola=0
@time 4840ns: pi_money=1 state=100 po_cola=0
@time 4860ns: pi_money=0 state=001 po_cola=1
@time 4880ns: pi_money=0 state=001 po_cola=0
@time 4920ns: pi_money=1 state=001 po_cola=0
@time 4940ns: pi_money=1 state=010 po_cola=0
@time 4960ns: pi_money=0 state=100 po_cola=0
@time 4980ns: pi_money=1 state=100 po_cola=0
@time 5000ns: pi_money=1 state=001 po_cola=1
@time 5020ns: pi_money=1 state=010 po_cola=0
@time 5040ns: pi_money=1 state=100 po_cola=0
@time 5060ns: pi_money=0 state=001 po_cola=1
@time 5080ns: pi_money=1 state=001 po_cola=0
@time 5100ns: pi_money=1 state=010 po_cola=0
@time 5120ns: pi_money=1 state=100 po_cola=0
@time 5140ns: pi_money=0 state=001 po_cola=1
@time 5160ns: pi_money=0 state=001 po_cola=0
@time 5180ns: pi_money=1 state=001 po_cola=0
@time 5200ns: pi_money=0 state=010 po_cola=0
@time 5240ns: pi_money=1 state=010 po_cola=0
@time 5260ns: pi_money=1 state=100 po_cola=0
@time 5280ns: pi_money=0 state=001 po_cola=1
@time 5300ns: pi_money=0 state=001 po_cola=0
@time 5320ns: pi_money=1 state=001 po_cola=0
@time 5340ns: pi_money=0 state=010 po_cola=0
@time 5380ns: pi_money=1 state=010 po_cola=0
@time 5400ns: pi_money=0 state=100 po_cola=0
@time 5420ns: pi_money=1 state=100 po_cola=0
@time 5440ns: pi_money=1 state=001 po_cola=1
@time 5460ns: pi_money=0 state=010 po_cola=0
@time 5480ns: pi_money=1 state=010 po_cola=0
@time 5500ns: pi_money=0 state=100 po_cola=0
@time 5520ns: pi_money=1 state=100 po_cola=0
@time 5540ns: pi_money=0 state=001 po_cola=1
@time 5560ns: pi_money=0 state=001 po_cola=0
@time 5580ns: pi_money=1 state=001 po_cola=0
@time 5600ns: pi_money=0 state=010 po_cola=0
@time 5660ns: pi_money=1 state=010 po_cola=0
@time 5680ns: pi_money=1 state=100 po_cola=0
@time 5700ns: pi_money=1 state=001 po_cola=1
@time 5720ns: pi_money=1 state=010 po_cola=0
@time 5740ns: pi_money=1 state=100 po_cola=0
@time 5760ns: pi_money=0 state=001 po_cola=1
@time 5780ns: pi_money=1 state=001 po_cola=0
@time 5800ns: pi_money=1 state=010 po_cola=0
@time 5820ns: pi_money=1 state=100 po_cola=0
@time 5840ns: pi_money=0 state=001 po_cola=1
@time 5860ns: pi_money=0 state=001 po_cola=0
@time 5960ns: pi_money=1 state=001 po_cola=0
@time 5980ns: pi_money=1 state=010 po_cola=0
@time 6000ns: pi_money=1 state=100 po_cola=0
@time 6020ns: pi_money=1 state=001 po_cola=1
@time 6040ns: pi_money=1 state=010 po_cola=0
@time 6060ns: pi_money=1 state=100 po_cola=0
@time 6080ns: pi_money=1 state=001 po_cola=1
@time 6100ns: pi_money=0 state=010 po_cola=0
@time 6120ns: pi_money=1 state=010 po_cola=0
@time 6140ns: pi_money=1 state=100 po_cola=0
@time 6160ns: pi_money=1 state=001 po_cola=1
@time 6180ns: pi_money=1 state=010 po_cola=0
@time 6200ns: pi_money=1 state=100 po_cola=0
@time 6220ns: pi_money=1 state=001 po_cola=1
@time 6240ns: pi_money=1 state=010 po_cola=0
@time 6260ns: pi_money=1 state=100 po_cola=0
@time 6280ns: pi_money=0 state=001 po_cola=1
@time 6300ns: pi_money=0 state=001 po_cola=0
@time 6320ns: pi_money=1 state=001 po_cola=0
@time 6340ns: pi_money=1 state=010 po_cola=0
@time 6360ns: pi_money=0 state=100 po_cola=0
@time 6440ns: pi_money=1 state=100 po_cola=0
@time 6460ns: pi_money=0 state=001 po_cola=1
@time 6480ns: pi_money=0 state=001 po_cola=0
@time 6580ns: pi_money=1 state=001 po_cola=0
@time 6600ns: pi_money=0 state=010 po_cola=0
@time 6640ns: pi_money=1 state=010 po_cola=0
@time 6660ns: pi_money=0 state=100 po_cola=0
@time 6740ns: pi_money=1 state=100 po_cola=0
@time 6760ns: pi_money=1 state=001 po_cola=1
@time 6780ns: pi_money=1 state=010 po_cola=0
@time 6800ns: pi_money=1 state=100 po_cola=0
@time 6820ns: pi_money=1 state=001 po_cola=1
@time 6840ns: pi_money=0 state=010 po_cola=0
@time 6860ns: pi_money=1 state=010 po_cola=0
@time 6880ns: pi_money=1 state=100 po_cola=0
@time 6900ns: pi_money=1 state=001 po_cola=1
@time 6920ns: pi_money=0 state=010 po_cola=0
@time 6940ns: pi_money=1 state=010 po_cola=0
@time 6960ns: pi_money=0 state=100 po_cola=0
@time 7000ns: pi_money=1 state=100 po_cola=0
@time 7020ns: pi_money=1 state=001 po_cola=1
@time 7040ns: pi_money=0 state=010 po_cola=0
@time 7060ns: pi_money=1 state=010 po_cola=0
@time 7080ns: pi_money=0 state=100 po_cola=0
@time 7120ns: pi_money=1 state=100 po_cola=0
@time 7140ns: pi_money=0 state=001 po_cola=1
@time 7160ns: pi_money=0 state=001 po_cola=0
@time 7220ns: pi_money=1 state=001 po_cola=0
@time 7240ns: pi_money=1 state=010 po_cola=0
@time 7260ns: pi_money=1 state=100 po_cola=0
@time 7280ns: pi_money=1 state=001 po_cola=1
@time 7300ns: pi_money=0 state=010 po_cola=0
@time 7320ns: pi_money=1 state=010 po_cola=0
@time 7340ns: pi_money=1 state=100 po_cola=0
@time 7360ns: pi_money=1 state=001 po_cola=1
@time 7380ns: pi_money=1 state=010 po_cola=0
@time 7400ns: pi_money=1 state=100 po_cola=0
@time 7420ns: pi_money=1 state=001 po_cola=1
@time 7440ns: pi_money=1 state=010 po_cola=0
@time 7460ns: pi_money=0 state=100 po_cola=0
@time 7480ns: pi_money=1 state=100 po_cola=0
@time 7500ns: pi_money=0 state=001 po_cola=1
@time 7520ns: pi_money=1 state=001 po_cola=0
@time 7540ns: pi_money=0 state=010 po_cola=0
@time 7580ns: pi_money=1 state=010 po_cola=0
@time 7600ns: pi_money=0 state=100 po_cola=0
@time 7700ns: pi_money=1 state=100 po_cola=0
@time 7720ns: pi_money=0 state=001 po_cola=1
@time 7740ns: pi_money=0 state=001 po_cola=0
@time 7840ns: pi_money=1 state=001 po_cola=0
@time 7860ns: pi_money=0 state=010 po_cola=0
@time 7880ns: pi_money=1 state=010 po_cola=0
@time 7900ns: pi_money=0 state=100 po_cola=0
@time 7940ns: pi_money=1 state=100 po_cola=0
@time 7960ns: pi_money=0 state=001 po_cola=1
@time 7980ns: pi_money=1 state=001 po_cola=0
@time 8000ns: pi_money=1 state=010 po_cola=0
@time 8020ns: pi_money=0 state=100 po_cola=0
@time 8040ns: pi_money=1 state=100 po_cola=0
@time 8060ns: pi_money=0 state=001 po_cola=1
@time 8080ns: pi_money=1 state=001 po_cola=0
@time 8100ns: pi_money=0 state=010 po_cola=0
@time 8180ns: pi_money=1 state=010 po_cola=0
@time 8200ns: pi_money=0 state=100 po_cola=0
@time 8220ns: pi_money=1 state=100 po_cola=0
@time 8240ns: pi_money=0 state=001 po_cola=1
@time 8260ns: pi_money=1 state=001 po_cola=0
@time 8280ns: pi_money=1 state=010 po_cola=0
@time 8300ns: pi_money=0 state=100 po_cola=0
@time 8320ns: pi_money=1 state=100 po_cola=0
@time 8340ns: pi_money=0 state=001 po_cola=1
@time 8360ns: pi_money=1 state=001 po_cola=0
@time 8380ns: pi_money=1 state=010 po_cola=0
@time 8400ns: pi_money=1 state=100 po_cola=0
@time 8420ns: pi_money=0 state=001 po_cola=1
@time 8440ns: pi_money=1 state=001 po_cola=0
@time 8460ns: pi_money=1 state=010 po_cola=0
@time 8480ns: pi_money=0 state=100 po_cola=0
@time 8520ns: pi_money=1 state=100 po_cola=0
@time 8540ns: pi_money=1 state=001 po_cola=1
@time 8560ns: pi_money=0 state=010 po_cola=0
@time 8600ns: pi_money=1 state=010 po_cola=0
@time 8620ns: pi_money=1 state=100 po_cola=0
@time 8640ns: pi_money=0 state=001 po_cola=1
@time 8660ns: pi_money=0 state=001 po_cola=0
@time 8680ns: pi_money=1 state=001 po_cola=0
@time 8700ns: pi_money=0 state=010 po_cola=0
@time 8740ns: pi_money=1 state=010 po_cola=0
@time 8760ns: pi_money=1 state=100 po_cola=0
@time 8780ns: pi_money=0 state=001 po_cola=1
@time 8800ns: pi_money=0 state=001 po_cola=0
@time 8820ns: pi_money=1 state=001 po_cola=0
@time 8840ns: pi_money=0 state=010 po_cola=0
@time 8880ns: pi_money=1 state=010 po_cola=0
@time 8900ns: pi_money=1 state=100 po_cola=0
@time 8920ns: pi_money=0 state=001 po_cola=1
@time 8940ns: pi_money=1 state=001 po_cola=0
@time 8960ns: pi_money=0 state=010 po_cola=0
@time 8980ns: pi_money=1 state=010 po_cola=0
@time 9000ns: pi_money=1 state=100 po_cola=0
@time 9020ns: pi_money=0 state=001 po_cola=1
@time 9040ns: pi_money=1 state=001 po_cola=0
@time 9060ns: pi_money=1 state=010 po_cola=0
@time 9080ns: pi_money=1 state=100 po_cola=0
@time 9100ns: pi_money=0 state=001 po_cola=1
@time 9120ns: pi_money=1 state=001 po_cola=0
@time 9140ns: pi_money=1 state=010 po_cola=0
@time 9160ns: pi_money=1 state=100 po_cola=0
@time 9180ns: pi_money=0 state=001 po_cola=1
@time 9200ns: pi_money=0 state=001 po_cola=0
@time 9220ns: pi_money=1 state=001 po_cola=0
@time 9240ns: pi_money=0 state=010 po_cola=0
@time 9280ns: pi_money=1 state=010 po_cola=0
@time 9300ns: pi_money=0 state=100 po_cola=0
@time 9340ns: pi_money=1 state=100 po_cola=0
@time 9360ns: pi_money=1 state=001 po_cola=1
@time 9380ns: pi_money=0 state=010 po_cola=0
@time 9400ns: pi_money=1 state=010 po_cola=0
@time 9420ns: pi_money=0 state=100 po_cola=0
@time 9440ns: pi_money=1 state=100 po_cola=0
@time 9460ns: pi_money=1 state=001 po_cola=1
@time 9480ns: pi_money=1 state=010 po_cola=0
@time 9500ns: pi_money=1 state=100 po_cola=0
@time 9520ns: pi_money=0 state=001 po_cola=1
@time 9540ns: pi_money=0 state=001 po_cola=0
@time 9560ns: pi_money=1 state=001 po_cola=0
@time 9580ns: pi_money=0 state=010 po_cola=0
@time 9600ns: pi_money=1 state=010 po_cola=0
@time 9620ns: pi_money=0 state=100 po_cola=0
@time 9640ns: pi_money=1 state=100 po_cola=0
@time 9660ns: pi_money=1 state=001 po_cola=1
@time 9680ns: pi_money=0 state=010 po_cola=0
@time 9720ns: pi_money=1 state=010 po_cola=0
@time 9740ns: pi_money=1 state=100 po_cola=0
@time 9760ns: pi_money=1 state=001 po_cola=1
@time 9780ns: pi_money=0 state=010 po_cola=0
@time 9820ns: pi_money=1 state=010 po_cola=0
@time 9840ns: pi_money=0 state=100 po_cola=0
@time 9880ns: pi_money=1 state=100 po_cola=0
@time 9900ns: pi_money=1 state=001 po_cola=1
@time 9920ns: pi_money=1 state=010 po_cola=0
@time 9940ns: pi_money=0 state=100 po_cola=0
@time 9960ns: pi_money=1 state=100 po_cola=0
@time 9980ns: pi_money=1 state=001 po_cola=1
@time 10000ns: pi_money=0 state=010 po_cola=0
@time 10060ns: pi_money=1 state=010 po_cola=0
@time 10080ns: pi_money=1 state=100 po_cola=0
@time 10100ns: pi_money=1 state=001 po_cola=1
@time 10120ns: pi_money=0 state=010 po_cola=0
@time 10180ns: pi_money=1 state=010 po_cola=0
@time 10200ns: pi_money=1 state=100 po_cola=0
@time 10220ns: pi_money=1 state=001 po_cola=1
@time 10240ns: pi_money=1 state=010 po_cola=0
@time 10260ns: pi_money=0 state=100 po_cola=0
@time 10280ns: pi_money=1 state=100 po_cola=0
@time 10300ns: pi_money=1 state=001 po_cola=1
@time 10320ns: pi_money=1 state=010 po_cola=0
@time 10340ns: pi_money=1 state=100 po_cola=0
@time 10360ns: pi_money=1 state=001 po_cola=1
@time 10380ns: pi_money=1 state=010 po_cola=0
@time 10400ns: pi_money=1 state=100 po_cola=0
@time 10420ns: pi_money=0 state=001 po_cola=1
@time 10440ns: pi_money=1 state=001 po_cola=0
@time 10460ns: pi_money=0 state=010 po_cola=0
@time 10520ns: pi_money=1 state=010 po_cola=0
@time 10540ns: pi_money=1 state=100 po_cola=0
@time 10560ns: pi_money=1 state=001 po_cola=1
@time 10580ns: pi_money=1 state=010 po_cola=0
@time 10600ns: pi_money=1 state=100 po_cola=0
@time 10620ns: pi_money=1 state=001 po_cola=1
@time 10640ns: pi_money=1 state=010 po_cola=0
@time 10660ns: pi_money=1 state=100 po_cola=0
@time 10680ns: pi_money=1 state=001 po_cola=1
@time 10700ns: pi_money=0 state=010 po_cola=0
@time 10760ns: pi_money=1 state=010 po_cola=0
@time 10780ns: pi_money=0 state=100 po_cola=0
@time 10840ns: pi_money=1 state=100 po_cola=0
@time 10860ns: pi_money=1 state=001 po_cola=1
@time 10880ns: pi_money=0 state=010 po_cola=0
@time 10940ns: pi_money=1 state=010 po_cola=0
@time 10960ns: pi_money=1 state=100 po_cola=0
@time 10980ns: pi_money=0 state=001 po_cola=1
@time 11000ns: pi_money=1 state=001 po_cola=0
@time 11020ns: pi_money=0 state=010 po_cola=0
@time 11040ns: pi_money=1 state=010 po_cola=0
@time 11060ns: pi_money=0 state=100 po_cola=0
@time 11120ns: pi_money=1 state=100 po_cola=0
@time 11140ns: pi_money=1 state=001 po_cola=1
@time 11160ns: pi_money=1 state=010 po_cola=0
@time 11180ns: pi_money=0 state=100 po_cola=0
@time 11200ns: pi_money=1 state=100 po_cola=0
@time 11220ns: pi_money=0 state=001 po_cola=1
@time 11240ns: pi_money=1 state=001 po_cola=0
@time 11260ns: pi_money=0 state=010 po_cola=0
@time 11280ns: pi_money=1 state=010 po_cola=0
@time 11300ns: pi_money=1 state=100 po_cola=0
@time 11320ns: pi_money=0 state=001 po_cola=1
@time 11340ns: pi_money=0 state=001 po_cola=0
@time 11400ns: pi_money=1 state=001 po_cola=0
@time 11420ns: pi_money=1 state=010 po_cola=0
@time 11440ns: pi_money=0 state=100 po_cola=0
@time 11480ns: pi_money=1 state=100 po_cola=0
@time 11500ns: pi_money=0 state=001 po_cola=1
@time 11520ns: pi_money=1 state=001 po_cola=0
@time 11540ns: pi_money=0 state=010 po_cola=0
@time 11560ns: pi_money=1 state=010 po_cola=0
@time 11580ns: pi_money=1 state=100 po_cola=0
@time 11600ns: pi_money=0 state=001 po_cola=1
@time 11620ns: pi_money=1 state=001 po_cola=0
@time 11640ns: pi_money=1 state=010 po_cola=0
@time 11660ns: pi_money=0 state=100 po_cola=0
@time 11740ns: pi_money=1 state=100 po_cola=0
@time 11760ns: pi_money=1 state=001 po_cola=1
@time 11780ns: pi_money=1 state=010 po_cola=0
@time 11800ns: pi_money=1 state=100 po_cola=0
@time 11820ns: pi_money=1 state=001 po_cola=1
@time 11840ns: pi_money=0 state=010 po_cola=0
@time 11980ns: pi_money=1 state=010 po_cola=0
@time 12000ns: pi_money=1 state=100 po_cola=0
@time 12020ns: pi_money=1 state=001 po_cola=1
@time 12040ns: pi_money=1 state=010 po_cola=0
@time 12060ns: pi_money=1 state=100 po_cola=0
@time 12080ns: pi_money=1 state=001 po_cola=1
@time 12100ns: pi_money=1 state=010 po_cola=0
@time 12120ns: pi_money=0 state=100 po_cola=0
@time 12240ns: pi_money=1 state=100 po_cola=0
@time 12260ns: pi_money=1 state=001 po_cola=1
@time 12280ns: pi_money=0 state=010 po_cola=0
@time 12300ns: pi_money=1 state=010 po_cola=0
@time 12320ns: pi_money=0 state=100 po_cola=0
@time 12340ns: pi_money=1 state=100 po_cola=0
@time 12360ns: pi_money=1 state=001 po_cola=1
@time 12380ns: pi_money=1 state=010 po_cola=0
@time 12400ns: pi_money=0 state=100 po_cola=0
@time 12460ns: pi_money=1 state=100 po_cola=0
@time 12480ns: pi_money=1 state=001 po_cola=1
@time 12500ns: pi_money=0 state=010 po_cola=0
@time 12520ns: pi_money=1 state=010 po_cola=0
@time 12540ns: pi_money=0 state=100 po_cola=0
@time 12660ns: pi_money=1 state=100 po_cola=0
@time 12680ns: pi_money=0 state=001 po_cola=1
@time 12700ns: pi_money=0 state=001 po_cola=0
@time 12720ns: pi_money=1 state=001 po_cola=0
@time 12740ns: pi_money=0 state=010 po_cola=0
@time 12780ns: pi_money=1 state=010 po_cola=0
@time 12800ns: pi_money=1 state=100 po_cola=0
@time 12820ns: pi_money=1 state=001 po_cola=1
@time 12840ns: pi_money=0 state=010 po_cola=0
@time 12880ns: pi_money=1 state=010 po_cola=0
@time 12900ns: pi_money=1 state=100 po_cola=0
@time 12920ns: pi_money=1 state=001 po_cola=1
@time 12940ns: pi_money=1 state=010 po_cola=0
@time 12960ns: pi_money=0 state=100 po_cola=0
@time 12980ns: pi_money=1 state=100 po_cola=0
@time 13000ns: pi_money=1 state=001 po_cola=1
@time 13020ns: pi_money=1 state=010 po_cola=0
@time 13040ns: pi_money=1 state=100 po_cola=0
@time 13060ns: pi_money=0 state=001 po_cola=1
@time 13080ns: pi_money=1 state=001 po_cola=0
@time 13100ns: pi_money=0 state=010 po_cola=0
@time 13140ns: pi_money=1 state=010 po_cola=0
@time 13160ns: pi_money=0 state=100 po_cola=0
@time 13200ns: pi_money=1 state=100 po_cola=0
@time 13220ns: pi_money=0 state=001 po_cola=1
@time 13240ns: pi_money=0 state=001 po_cola=0
@time 13340ns: pi_money=1 state=001 po_cola=0
@time 13360ns: pi_money=1 state=010 po_cola=0
@time 13380ns: pi_money=0 state=100 po_cola=0
@time 13420ns: pi_money=1 state=100 po_cola=0
@time 13440ns: pi_money=1 state=001 po_cola=1
@time 13460ns: pi_money=1 state=010 po_cola=0
@time 13480ns: pi_money=1 state=100 po_cola=0
@time 13500ns: pi_money=1 state=001 po_cola=1
@time 13520ns: pi_money=1 state=010 po_cola=0
@time 13540ns: pi_money=1 state=100 po_cola=0
@time 13560ns: pi_money=0 state=001 po_cola=1
@time 13580ns: pi_money=1 state=001 po_cola=0
@time 13600ns: pi_money=0 state=010 po_cola=0
@time 13660ns: pi_money=1 state=010 po_cola=0
@time 13680ns: pi_money=1 state=100 po_cola=0
@time 13700ns: pi_money=0 state=001 po_cola=1
@time 13720ns: pi_money=1 state=001 po_cola=0
@time 13740ns: pi_money=1 state=010 po_cola=0
@time 13760ns: pi_money=1 state=100 po_cola=0
@time 13780ns: pi_money=0 state=001 po_cola=1
@time 13800ns: pi_money=0 state=001 po_cola=0
@time 13860ns: pi_money=1 state=001 po_cola=0
@time 13880ns: pi_money=1 state=010 po_cola=0
@time 13900ns: pi_money=1 state=100 po_cola=0
@time 13920ns: pi_money=0 state=001 po_cola=1
@time 13940ns: pi_money=1 state=001 po_cola=0
@time 13960ns: pi_money=0 state=010 po_cola=0
@time 14100ns: pi_money=1 state=010 po_cola=0
@time 14120ns: pi_money=0 state=100 po_cola=0
@time 14160ns: pi_money=1 state=100 po_cola=0
@time 14180ns: pi_money=1 state=001 po_cola=1
@time 14200ns: pi_money=1 state=010 po_cola=0
@time 14220ns: pi_money=1 state=100 po_cola=0
@time 14240ns: pi_money=1 state=001 po_cola=1
@time 14260ns: pi_money=0 state=010 po_cola=0
@time 14340ns: pi_money=1 state=010 po_cola=0
@time 14360ns: pi_money=1 state=100 po_cola=0
@time 14380ns: pi_money=0 state=001 po_cola=1
@time 14400ns: pi_money=0 state=001 po_cola=0
@time 14420ns: pi_money=1 state=001 po_cola=0
@time 14440ns: pi_money=1 state=010 po_cola=0
@time 14460ns: pi_money=1 state=100 po_cola=0
